﻿id;login;promotion;city
167;antoine.camille;msc2021;Bordeaux
120;arnaud.sinays;msc2021;Bordeaux
170;aurelien.lempreur;msc2021;Bordeaux
178;aurelien.nagat;msc2021;Bordeaux
150;bastien.noirant;msc2021;Bordeaux
190;christophe.cast;msc2021;Bordeaux
173;clement.cazaubon;msc2021;Bordeaux
205;clement.thomas;msc2021;Bordeaux
119;guillaume.rault;msc2021;Bordeaux
50;lucas.dumartin;msc2021;Bordeaux
174;lucas.lemoigne;msc2021;Bordeaux
189;lucas.torres;msc2021;Bordeaux
145;mickael.duprat;msc2021;Bordeaux
191;miguel.joubert;msc2021;Bordeaux
118;morgane.hernandez-lecam;msc2021;Bordeaux
179;paul1.billot;msc2021;Bordeaux
123;remi.correnson;msc2021;Bordeaux
321;romain.helou-lenoir;msc2021;Bordeaux
56;simon.colin;msc2021;Bordeaux
54;steven.nguyen;msc2021;Bordeaux
49;sylvain.dupuy;msc2021;Bordeaux
172;valentin.cravea;msc2021;Bordeaux
39;wilfried.raynaud;msc2021;Bordeaux
117;william.binet;msc2021;Bordeaux
432;andrei.serguienko;msc2022;Bordeaux
561;aurelien.de-la-casa;msc2022;Bordeaux
552;baptiste.gellato;msc2022;Bordeaux
578;baptyste.bonnaudin;msc2022;Bordeaux
451;bastien.genestal;msc2022;Bordeaux
566;benjamin.planson;msc2022;Bordeaux
536;dylan.garineaud;msc2022;Bordeaux
577;dylan.seraphine;msc2022;Bordeaux
576;eloi.lafargue;msc2022;Bordeaux
559;flavien.perrocheau;msc2022;Bordeaux
389;hugo.bardu;msc2022;Bordeaux
560;jeremy.hoffmann;msc2022;Bordeaux
541;jules.blanchet;msc2022;Bordeaux
638;karim.badji;msc2022;Bordeaux
571;kathy.voisin;msc2022;Bordeaux
553;logan.lagarre-jumeau;msc2022;Bordeaux
425;mathieu.blindron;msc2022;Bordeaux
539;pierre.soubieille;msc2022;Bordeaux
557;pierre-edouard.croise;msc2022;Bordeaux
555;raphael.escrig;msc2022;Bordeaux
551;samuel.caillot;msc2022;Bordeaux
493;simon.noel;msc2022;Bordeaux
540;theo.andre;msc2022;Bordeaux
538;theodore.daignan-fornier-de-lachaux;msc2022;Bordeaux
548;thomas.demirdjian;msc2022;Bordeaux
558;ugo.leroy;msc2022;Bordeaux
562;valentin.dewez;msc2022;Bordeaux
99;alvyn.lafeil;msc2021;Lille
109;brice.tossim;msc2021;Lille
199;charles.lavalard;msc2021;Lille
9;faustine.podsiadlo-kins;msc2021;Lille
87;hugo.lefebvre;msc2021;Lille
90;mathilde.chabeau;msc2021;Lille
180;matthieu.bouamama;msc2021;Lille
104;maximilien.desnos;msc2021;Lille
141;quentin.brillard;msc2021;Lille
70;redwane.adimi;msc2021;Lille
210;samy.gritli;msc2021;Lille
67;sebastien.keller;msc2021;Lille
92;simon.dubus;msc2021;Lille
200;stephane.oliveira-dos-santos;msc2021;Lille
13;william.delbecq;msc2021;Lille
526;abel.de-smedt;msc2022;Lille
496;antoine.debusschere;msc2022;Lille
525;arthur.leszczynski;msc2022;Lille
506;basile.savinien;msc2022;Lille
520;billal.cherif;msc2022;Lille
530;brandon.gillis;msc2022;Lille
513;charles.robertson;msc2022;Lille
570;clement.dumon;msc2022;Lille
598;clement.lacroix;msc2022;Lille
711;clement.scherpereel;msc2022;Lille
505;corentin.lepetit;msc2022;Lille
428;corentin.marquant;msc2022;Lille
497;emilie.boeglen;msc2022;Lille
509;floryan.mollet;msc2022;Lille
524;gauthier.betaucourt;msc2022;Lille
511;germain.lefebvre;msc2022;Lille
519;jean.cossart;msc2022;Lille
441;jeremy.meurin;msc2022;Lille
501;jonathan.lefebvre;msc2022;Lille
437;julien.genel;msc2022;Lille
507;julien.thueux;msc2022;Lille
596;laurent.quersin;msc2022;Lille
690;lea.junger;msc2022;Lille
710;logan.velu;msc2022;Lille
503;lucas.duboisse;msc2022;Lille
510;marc-antoine.muggeo;msc2022;Lille
498;martin.lepoutre;msc2022;Lille
523;mercier.gauthier;msc2022;Lille
537;quentin.tournier;msc2022;Lille
567;quentin.tridon;msc2022;Lille
512;renaud.gilliers;msc2022;Lille
424;richard-brice-moussa.bathiebo;msc2022;Lille
504;romain.deliance;msc2022;Lille
502;sabri.ouaked;msc2022;Lille
494;sarah.benani;msc2022;Lille
521;sofian.delalay;msc2022;Lille
568;sylla.bema;msc2022;Lille
522;tom.le-roux;msc2022;Lille
434;tristan.chaput;msc2022;Lille
485;yannis.bouacem;msc2022;Lille
203;aurelien.brioude;msc2021;Lyon
155;axel.martin;msc2021;Lyon
80;cedric.peyronnet;msc2021;Lyon
24;dylan.bengueddache;msc2021;Lyon
159;gregoire.chenal;msc2021;Lyon
89;julien.jauffret;msc2021;Lyon
220;julien.legay;msc2021;Lyon
48;laura.marchand;msc2021;Lyon
38;lucas.de-angelis;msc2021;Lyon
37;mael.alle;msc2021;Lyon
78;martin.leveque;msc2021;Lyon
116;nathan1.lagrange;msc2021;Lyon
100;oussama.ouzzine;msc2021;Lyon
154;raphael.palerme;msc2021;Lyon
122;sarra.dif;msc2021;Lyon
113;tony.cannard;msc2021;Lyon
208;vincent.linet;msc2021;Lyon
106;vincent.rochas;msc2021;Lyon
65;zakaria.chahbi;msc2021;Lyon
715;aaron1.boateng;msc2022;Lyon
462;abdelhay.oulidi-omali;msc2022;Lyon
682;adem.ordek;msc2022;Lyon
701;alexandre.allary;msc2022;Lyon
720;alexandre.caussade;msc2022;Lyon
657;antoine1.guerra;msc2022;Lyon
457;baptiste.decourt;msc2022;Lyon
647;bastien.berguer;msc2022;Lyon
668;florian.giacinti;msc2022;Lyon
646;gabin.blazer;msc2022;Lyon
618;guillaume.roussel;msc2022;Lyon
459;jatin.bhatia;msc2022;Lyon
695;jean.viratel;msc2022;Lyon
645;julien.barriere;msc2022;Lyon
531;julien.hayrault;msc2022;Lyon
642;li.wang-faure;msc2022;Lyon
422;loan.jouffroy;msc2022;Lyon
719;lucas.mastrovito;msc2022;Lyon
713;lucien.sigayret;msc2022;Lyon
709;mael.ramillien;msc2022;Lyon
681;marco.viallefont;msc2022;Lyon
696;maxime.pasquier;msc2022;Lyon
533;melvin.hersent;msc2022;Lyon
461;moise.cahu;msc2022;Lyon
665;nazaraly-habib-mazaire.nouraly;msc2022;Lyon
703;nicolas.chateau;msc2022;Lyon
679;nicolas.pandraud;msc2022;Lyon
685;nikita.melnikov;msc2022;Lyon
465;pierre.payet;msc2022;Lyon
718;quentin.allary;msc2022;Lyon
661;raphael1.levy;msc2022;Lyon
700;remi.pontonnier;msc2022;Lyon
464;richy.yuen;msc2022;Lyon
639;rodolphe.marbot;msc2022;Lyon
704;romain.emery;msc2022;Lyon
458;romain.piot;msc2022;Lyon
632;romain1.cordier;msc2022;Lyon
610;tom.gallot;msc2022;Lyon
641;vincent.baudelet;msc2022;Lyon
197;anthony.goncalves-degea;msc2021;Marseille
177;david.vera;msc2021;Marseille
216;dorian.testa;msc2021;Marseille
187;eloi.carlot-pascal;msc2021;Marseille
132;luc.soriano;msc2021;Marseille
175;nicolas.briere;msc2021;Marseille
161;nicolas.drolez;msc2021;Marseille
213;raphael.celestin;msc2021;Marseille
214;romain.floupin;msc2021;Marseille
232;said.ali-hamadou;msc2021;Marseille
601;adrien.adamiste;msc2022;Marseille
648;alex.kuntz;msc2022;Marseille
544;alexandre.garcia-accar;msc2022;Marseille
649;antoine.masson;msc2022;Marseille
631;arthur.simonian;msc2022;Marseille
729;baptiste.pernin;msc2022;Marseille
469;bryan.lebar;msc2022;Marseille
580;dan.cohen;msc2022;Marseille
543;francois.de-taxis-du-poet;msc2022;Marseille
636;hamza.ince;msc2022;Marseille
698;jeremy.csont;msc2022;Marseille
728;malika.cisse;msc2022;Marseille
450;marceau.cristianini;msc2022;Marseille
546;mathieu.pigot;msc2022;Marseille
542;matteo.meneses-marques;msc2022;Marseille
400;maxime.poveda;msc2022;Marseille
653;mehdi.rhoulam;msc2022;Marseille
545;ndiane-elabdourahim.diop;msc2022;Marseille
643;nicolas.hebequet;msc2022;Marseille
579;oren.cohen;msc2022;Marseille
686;thibaut.belvisi;msc2022;Marseille
128;antoine.falais;msc2021;Montpellier
124;antoine.girardin;msc2021;Montpellier
102;arnaud.brown;msc2021;Montpellier
219;bartosz.truchlewski;msc2021;Montpellier
211;david.schoffit;msc2021;Montpellier
75;esteban.berthier;msc2021;Montpellier
23;ilyes.kahoul;msc2021;Montpellier
101;jean.bosc;msc2021;Montpellier
73;joris.calamel;msc2021;Montpellier
53;leo.hamon;msc2021;Montpellier
204;mathieu.dufour;msc2021;Montpellier
166;maxime.gavens;msc2021;Montpellier
51;theo.walcker;msc2021;Montpellier
57;thierry.delran;msc2021;Montpellier
66;yoann1.abbes;msc2021;Montpellier
474;abibou-falilou.ngom;msc2022;Montpellier
456;amandine.etheve;msc2022;Montpellier
623;anthony.molter;msc2022;Montpellier
591;arnaud.michel;msc2022;Montpellier
449;assima.tagba;msc2022;Montpellier
723;aurelien.ursulet;msc2022;Montpellier
581;baptiste1.dumont;msc2022;Montpellier
651;benjamin.chikhoune;msc2022;Montpellier
404;benjamin.hay;msc2022;Montpellier
593;damien.radatovic;msc2022;Montpellier
597;emma.rouzaud;msc2022;Montpellier
590;eric.gadbin;msc2022;Montpellier
463;guilhem2.lacombe;msc2022;Montpellier
472;jean-olivier.boissin;msc2022;Montpellier
724;jonathan.joseph;msc2022;Montpellier
517;julie.nanta;msc2022;Montpellier
624;mathieu.gorrias;msc2022;Montpellier
582;mathieu.reboul;msc2022;Montpellier
660;mathis.alepis;msc2022;Montpellier
677;mathis1.pellerin;msc2022;Montpellier
687;mohamed-mostafa.bouyakhlef;msc2022;Montpellier
500;morgan.druesne;msc2022;Montpellier
722;nathan.ragonnet;msc2022;Montpellier
676;sophie-anne.bapte;msc2022;Montpellier
452;thibault.capelli;msc2022;Montpellier
678;thomas.fournier;msc2022;Montpellier
592;thomas.martimort;msc2022;Montpellier
201;alexandre.ralli;msc2021;Nancy
142;hugo.lewandowski;msc2021;Nancy
144;loic.roger;msc2021;Nancy
217;mathias.belcastro;msc2021;Nancy
146;maxime.fragnieres;msc2021;Nancy
115;miranto.razafindrazaka;msc2021;Nancy
61;pierre.lellu;msc2021;Nancy
27;remi.faubourg;msc2021;Nancy
11;roman.merck;msc2021;Nancy
408;antonio.vallera;msc2022;Nancy
549;corentin.martin;msc2022;Nancy
491;emilien.lambert;msc2022;Nancy
589;fares.qedira;msc2022;Nancy
471;kotchenin-kosson.fanidji-kassigni;msc2022;Nancy
516;leo.marcel;msc2022;Nancy
721;maissa2.nouhaud;msc2022;Nancy
583;matthieu.alcaro;msc2022;Nancy
227;anatole.acqueberge;msc2021;Nantes
230;brieuc.de-lantivy;msc2021;Nantes
192;flavien.lalloue;msc2021;Nantes
184;guillaume.caze-francois;msc2021;Nantes
33;nicolas.bou;msc2021;Nantes
488;alberto.grellier;msc2022;Nantes
692;alexandre.eveillard;msc2022;Nantes
396;anatole1.piveteau;msc2022;Nantes
627;benoit.de-marion;msc2022;Nantes
438;bienvenue1.houl-boumi;msc2022;Nantes
629;florian.cargouet;msc2022;Nantes
421;florian.sorin;msc2022;Nantes
633;hugo.allegaert;msc2022;Nantes
394;killiann.hervagault;msc2022;Nantes
666;louis.vince;msc2022;Nantes
694;lucas.drapeau;msc2022;Nantes
395;marie.briand;msc2022;Nantes
693;maxime.peniguel;msc2022;Nantes
628;reda.lamini;msc2022;Nantes
527;romain.fouyer;msc2022;Nantes
637;romain1.lefebvre;msc2022;Nantes
426;sarah.petanec;msc2022;Nantes
405;teo.conan;msc2022;Nantes
699;thibault.vandamme;msc2022;Nantes
634;thomas.boursier;msc2022;Nantes
680;yoann.loial;msc2022;Nantes
196;aissa.elouafi;msc2021;Nice
228;alexis.breheret;msc2021;Nice
186;ayoub.houkmi;msc2021;Nice
233;clement.ruffino;msc2021;Nice
181;lorenzo.pasquier-flaud;msc2021;Nice
171;nathanael.dordonne;msc2021;Nice
198;pedroantonio.arrazolaleon;msc2021;Nice
445;adil.mektoub;msc2022;Nice
612;anthony.barnoin;msc2022;Nice
625;anthony.gessat;msc2022;Nice
622;benoit.cavallo;msc2022;Nice
466;liam.fabiano;msc2022;Nice
412;mickael.appel;msc2022;Nice
617;mohammed.tabouy;msc2022;Nice
550;remy.dargent;msc2022;Nice
322;abdelghani.salhi;msc2021;Paris
335;abderahmane.mammar;msc2021;Paris
221;adel.afassi;msc2021;Paris
136;adrien.promtep;msc2021;Paris
231;amine.salah;msc2021;Paris
77;amine-reda.oumeziane;msc2021;Paris
29;andy.afene-mebaley;msc2021;Paris
76;anthony.milharica;msc2021;Paris
215;antoine.renaud;msc2021;Paris
46;arnold.loubriat;msc2021;Paris
328;arthur.malaise;msc2021;Paris
163;badre.leglil;msc2021;Paris
334;basile-judicael1.drabo;msc2021;Paris
82;clement.baumann;msc2021;Paris
95;clement.cornut;msc2021;Paris
137;damien1.millot;msc2021;Paris
97;dmitrii.petukhov;msc2021;Paris
79;dylan.marion;msc2021;Paris
158;fara1.pailhes;msc2021;Paris
156;fateh.oumitouche;msc2021;Paris
327;filipe.dasilva;msc2021;Paris
71;florian.lesgourgues;msc2021;Paris
55;ibtissem.rezig;msc2021;Paris
330;jeremie.kalabasi;msc2021;Paris
68;jordan.descoteaux;msc2021;Paris
223;karim.dalaize;msc2021;Paris
229;kevin.kiyak;msc2021;Paris
169;louis.de-changy-guyot;msc2021;Paris
42;lycia.messaoui;msc2021;Paris
324;mahdi.boughlam;msc2021;Paris
32;maina-ari.ibrahim-bila;msc2021;Paris
20;marc.chou;msc2021;Paris
337;marko.mitrovic;msc2021;Paris
225;mavrick-tsiferantsoa.andriantavy;msc2021;Paris
325;maxim.perrin;msc2021;Paris
45;mayeul.lefebvre;msc2021;Paris
134;melanie.ipekci;msc2021;Paris
194;miguel.cherqui;msc2021;Paris
107;nathann.zenou;msc2021;Paris
112;nicolas.albanel;msc2021;Paris
226;nicolas1.leroux;msc2021;Paris
93;remi.nguyen;msc2021;Paris
96;romain1.leroy;msc2021;Paris
183;ronan.duault;msc2021;Paris
336;ryan.zemri;msc2021;Paris
152;sabah.agoun;msc2021;Paris
25;said.mammar;msc2021;Paris
224;sami.kasbi;msc2021;Paris
138;samirah.tachet;msc2021;Paris
44;samy.lemaissi;msc2021;Paris
43;sara.bourahla;msc2021;Paris
133;steve.lagrandcourt;msc2021;Paris
69;timothee.despeuilles;msc2021;Paris
81;titouan.leflochriche;msc2021;Paris
168;vitaly.sokolov;msc2021;Paris
182;william.bureau;msc2021;Paris
193;wyllem.coat;msc2021;Paris
139;yoel.laskar;msc2021;Paris
209;youcef.chergui;msc2021;Paris
84;youcef.djeffal;msc2021;Paris
708;adel1.bensalem;msc2022;Paris
673;alex.commeau;msc2022;Paris
411;amaury.faveriel;msc2022;Paris
714;amine.bensalem;msc2022;Paris
697;anass.latrach;msc2022;Paris
470;arthur.barthelme;msc2022;Paris
733;arthur.jacquemin;msc2022;Paris
742;axel.brasseur;msc2022;Paris
644;baptiste.plancke;msc2022;Paris
595;benjamin.amory;msc2022;Paris
727;bruno.dos-santos-oliveira;msc2022;Paris
744;chase.lawrence;msc2022;Paris
663;clement.lecroart;msc2022;Paris
439;damien.dos-santos;msc2022;Paris
659;deborah.sublemontier;msc2022;Paris
672;fabrice.sumsa;msc2022;Paris
442;franck-borel.tagant-nguechou;msc2022;Paris
484;francois.de-vathaire;msc2022;Paris
444;gaetan.dubuc;msc2022;Paris
554;geoffroy.huck;msc2022;Paris
656;georges.bitakwire;msc2022;Paris
630;guilhem.louis-francois;msc2022;Paris
726;hedhie.krouk;msc2022;Paris
387;hugo.del-pia;msc2022;Paris
535;ismail.haouam;msc2022;Paris
741;iyad.callas;msc2022;Paris
611;james.zemouri;msc2022;Paris
688;jeremy.butin;msc2022;Paris
616;joel1.tan;msc2022;Paris
402;johan-david.dehi;msc2022;Paris
640;jonathan.khalifa;msc2022;Paris
737;julien.foenkinos;msc2022;Paris
650;kevan1.sadeghi;msc2022;Paris
738;louis.garret;msc2022;Paris
689;lucas.boisbourdin;msc2022;Paris
730;manuel.konrath;msc2022;Paris
594;marie.nuellas;msc2022;Paris
740;michel.luczak;msc2022;Paris
705;mohammed.zerhouni;msc2022;Paris
734;nedjma.boudaoud;msc2022;Paris
658;nelson.angelique;msc2022;Paris
735;nicolas.desmares;msc2022;Paris
662;nicolas.fadelle;msc2022;Paris
706;nicolas.pichard;msc2022;Paris
654;nicolas1.havard;msc2022;Paris
563;ozan.yildiz;msc2022;Paris
655;patrick.benzidane;msc2022;Paris
652;paul.le-bras;msc2022;Paris
448;ranga.jayasuriya;msc2022;Paris
391;remi.doreau;msc2022;Paris
467;reyane.remache;msc2022;Paris
410;rodolphe.tiquet-duriez;msc2022;Paris
418;ryan.headley;msc2022;Paris
388;soheib.kehal;msc2022;Paris
743;sylvain.raya;msc2022;Paris
468;teddy.tinjic;msc2022;Paris
397;thomas.birmingham;msc2022;Paris
736;tio1.gobin;msc2022;Paris
455;vanissa.balakichenane;msc2022;Paris
683;victor.thouin;msc2022;Paris
739;warren.o-connor;msc2022;Paris
406;youness.bennaj;msc2022;Paris
675;youssef1.zakraoui;msc2022;Paris
16;alexis.trousset;msc2021;Rennes
12;arthur.hertz;msc2021;Rennes
153;remi.roussel;msc2021;Rennes
47;touria.oudadsse;msc2021;Rennes
587;alexandre.cochet;msc2022;Rennes
635;alexandre.meheut;msc2022;Rennes
399;antoine.pourchasse;msc2022;Rennes
712;arnaud.desrivieres;msc2022;Rennes
495;aurelien.conte;msc2022;Rennes
477;benjamin.droulon;msc2022;Rennes
433;brieg.lhostis;msc2022;Rennes
664;bryan.le-tohic;msc2022;Rennes
565;charles.chopin;msc2022;Rennes
731;clement.auger;msc2022;Rennes
476;clement.jardin;msc2022;Rennes
443;cormier.simon;msc2022;Rennes
588;curtis.coureau;msc2022;Rennes
626;elizabeth.soto;msc2022;Rennes
609;gabriel.hamel;msc2022;Rennes
547;hugo.boistuaud;msc2022;Rennes
586;loic1.bontemps;msc2022;Rennes
716;louis.chevillotte;msc2022;Rennes
608;malo.landemaine;msc2022;Rennes
603;matisse.aubry;msc2022;Rennes
518;paul-gerard-brandon.aboh-a-kesseng;msc2022;Rennes
747;pierre-francois.rissel;msc2022;Rennes
674;romain.douteau;msc2022;Rennes
487;wijdane.chenaa;msc2022;Rennes
670;yvan.buzea;msc2022;Rennes
307;brandon.welsch;msc2021;Strasbourg
148;carolina-niranjala.louis-thayanand;msc2021;Strasbourg
165;cyril.nachbaur;msc2021;Strasbourg
157;dan.vo;msc2021;Strasbourg
22;guillaume.thiery;msc2021;Strasbourg
185;guillaume1.david;msc2021;Strasbourg
19;jonas.haberkorn;msc2021;Strasbourg
40;julien.martin;msc2021;Strasbourg
98;martin.klein-north;msc2021;Strasbourg
147;maxime.wierez-kien;msc2021;Strasbourg
105;nicolas.klein;msc2021;Strasbourg
88;ogun.kocaoz;msc2021;Strasbourg
110;sebastien.sattler;msc2021;Strasbourg
613;alexis.barthelmebs;msc2022;Strasbourg
532;amel1.neffati;msc2022;Strasbourg
482;axel.ludwig;msc2022;Strasbourg
621;carthic.sekar;msc2022;Strasbourg
409;dylan.hochberger;msc2022;Strasbourg
453;gregoire.conreaux;msc2022;Strasbourg
479;gregory.koenig;msc2022;Strasbourg
605;hugo.haquette;msc2022;Strasbourg
460;jeremy.estienne;msc2022;Strasbourg
489;jules.bozouklian;msc2022;Strasbourg
514;loic.mastio;msc2022;Strasbourg
528;lucas.heitzmann;msc2022;Strasbourg
569;lyne.armand;msc2022;Strasbourg
398;mathieu.sommer;msc2022;Strasbourg
492;maxime1.lardier;msc2022;Strasbourg
392;pierre.bobard;msc2022;Strasbourg
483;pierre.harelle;msc2022;Strasbourg
499;quentin2.sommer;msc2022;Strasbourg
490;richard.la;msc2022;Strasbourg
427;sana.ammar;msc2022;Strasbourg
481;zhigang.peng;msc2022;Strasbourg
58;alexandre.colombel;msc2021;Toulouse
26;alizee.forestier;msc2021;Toulouse
188;arnaud.heymans;msc2021;Toulouse
121;bastien.desprats;msc2021;Toulouse
127;fahim.benchaabane;msc2021;Toulouse
62;guillaume.brocard;msc2021;Toulouse
176;jeremie2.bourgeois;msc2021;Toulouse
162;kevin.loubere;msc2021;Toulouse
125;kevin.oustry;msc2021;Toulouse
129;lou.canadell;msc2021;Toulouse
135;lucas.fabre;msc2021;Toulouse
151;maria.grine;msc2021;Toulouse
63;mathieu-robert.castaing;msc2021;Toulouse
52;michael.lucas;msc2021;Toulouse
108;niels.boussion;msc2021;Toulouse
21;quentin.horneman-gutton;msc2021;Toulouse
30;thomas.lopez;msc2021;Toulouse
575;aurelie.dantec;msc2022;Toulouse
572;axel.migy;msc2022;Toulouse
447;aymerick.domergue;msc2022;Toulouse
440;basile.rolland;msc2022;Toulouse
414;bastien.angles;msc2022;Toulouse
393;benjamin.poux;msc2022;Toulouse
429;boubacar.soumare;msc2022;Toulouse
454;cedric.duraysseix;msc2022;Toulouse
606;christophe.tiet;msc2022;Toulouse
599;etienne.leroy;msc2022;Toulouse
416;francisco.soares-dos-santos;msc2022;Toulouse
702;godefroy.chabanas;msc2022;Toulouse
584;hugo.courthias;msc2022;Toulouse
420;jean-loup.aurisset;msc2022;Toulouse
436;julien1.adolphe;msc2022;Toulouse
620;lara.bardou-paccianus;msc2022;Toulouse
431;lionel.bonzoumet;msc2022;Toulouse
717;lucas.delolme;msc2022;Toulouse
417;ludovic.robbe;msc2022;Toulouse
602;lyna.kartout;msc2022;Toulouse
684;malusi.towo;msc2022;Toulouse
619;matthieu.daugas;msc2022;Toulouse
401;mouton.florent;msc2022;Toulouse
423;noemie.girard;msc2022;Toulouse
413;paul.managau;msc2022;Toulouse
615;pierrick.pilorget;msc2022;Toulouse
435;quentin.aslan;msc2022;Toulouse
407;samantha.pourciel;msc2022;Toulouse
403;samuel.vergniol;msc2022;Toulouse
415;sandra.ibrahim;msc2022;Toulouse
515;sandrine.da-silva;msc2022;Toulouse
446;sarah.brisson;msc2022;Toulouse
478;sylvain.pons;msc2022;Toulouse
574;theo.capelle;msc2022;Toulouse
564;thomas.nunes;msc2022;Toulouse
585;tifaine.larroque;msc2022;Toulouse
604;tom.ibarreche;msc2022;Toulouse
573;valentin.noel;msc2022;Toulouse
669;victor.mader;msc2022;Toulouse